9 18
30 15 10 20
5 0 5 0 5 0 5 0 5 0 5 0 5 0 5 0 5 0
0 5 0 5 0 5 0 5 0 5 0 5 0 5 0 5 0 5
5 0 5 0 5 0 5 0 5 0 5 0 5 0 5 0 5 0
0 5 0 5 0 5 0 5 0 5 0 5 0 5 0 5 0 5
5 0 5 0 5 0 5 0 5 0 5 0 5 0 5 0 5 0
0 5 0 5 0 5 0 5 0 5 0 5 0 5 0 5 0 5
5 0 5 0 5 0 5 0 5 0 5 0 5 0 5 0 5 0
0 5 0 5 0 5 0 5 0 5 0 5 0 5 0 5 0 5
5 0 5 0 5 0 5 0 5 0 5 0 5 0 5 0 5 0